<?xml version="1.0" encoding="UTF-8" standalone="no"?>
<!-- Created with Inkscape (http://www.inkscape.org/) -->

<svg
   xmlns:dc="http://purl.org/dc/elements/1.1/"
   xmlns:cc="http://creativecommons.org/ns#"
   xmlns:rdf="http://www.w3.org/1999/02/22-rdf-syntax-ns#"
   xmlns:svg="http://www.w3.org/2000/svg"
   xmlns="http://www.w3.org/2000/svg"
   xmlns:sodipodi="http://sodipodi.sourceforge.net/DTD/sodipodi-0.dtd"
   xmlns:inkscape="http://www.inkscape.org/namespaces/inkscape"
   width="150"
   height="150"
   viewBox="0 0 39.687499 39.687501"
   version="1.1"
   id="svg14273"
   inkscape:version="0.92.3 (2405546, 2018-03-11)"
   sodipodi:docname="icon_nav_bar_history.svg"
   inkscape:export-filename="/media/cosmobird/Work/Organizing Matrix/5-Cooperative/3 - Repo/jipmer/uxui/assets/icon_nav_bar_history.png"
   inkscape:export-xdpi="96"
   inkscape:export-ydpi="96">
  <defs
     id="defs14267" />
  <sodipodi:namedview
     id="base"
     pagecolor="#ffffff"
     bordercolor="#666666"
     borderopacity="1.0"
     inkscape:pageopacity="0.0"
     inkscape:pageshadow="2"
     inkscape:zoom="1.4420689"
     inkscape:cx="-21.513915"
     inkscape:cy="93.499795"
     inkscape:document-units="mm"
     inkscape:current-layer="layer1"
     showgrid="false"
     units="px"
     inkscape:window-width="1366"
     inkscape:window-height="705"
     inkscape:window-x="0"
     inkscape:window-y="30"
     inkscape:window-maximized="1" />
  <metadata
     id="metadata14270">
    <rdf:RDF>
      <cc:Work
         rdf:about="">
        <dc:format>image/svg+xml</dc:format>
        <dc:type
           rdf:resource="http://purl.org/dc/dcmitype/StillImage" />
        <dc:title></dc:title>
      </cc:Work>
    </rdf:RDF>
  </metadata>
  <g
     inkscape:label="Layer 1"
     inkscape:groupmode="layer"
     id="layer1"
     transform="translate(0,-257.31248)">
    <path
       style="fill:#ececec;fill-rule:evenodd;stroke-width:0.80200613;fill-opacity:1"
       sodipodi:nodetypes="scssccssss"
       id="path14359"
       d="m 19.366214,278.25707 c 0,0.33432 -0.104458,0.66028 -0.298774,0.93232 l -6.669624,4.51128 c -0.733781,0.49632 -1.516689,0.88783 -2.237552,0.37293 -0.7208638,-0.51491 -0.8878279,-1.51669 -0.3729255,-2.23755 l 6.3708505,-3.97998 V 268.633 c 0,-0.88587 0.718141,-1.60401 1.604012,-1.60401 0.885872,0 1.604013,0.71814 1.604013,1.60401 z"
       inkscape:connector-curvature="0" />
    <path
       style="fill:#ececec;fill-rule:evenodd;stroke-width:0.80200613;fill-opacity:1"
       id="path14361"
       d="m 17.644136,291.59234 c -7.9728438,0 -14.4361111,-6.46327 -14.4361111,-14.43611 0,-7.97285 6.4632673,-14.43612 14.4361111,-14.43612 3.782818,0 7.331917,1.45911 10.00422,4.02855 0.638575,0.61399 1.653984,0.59407 2.267979,-0.0445 0.613995,-0.63857 0.594069,-1.65398 -0.04451,-2.26798 -3.264074,-3.13843 -7.60746,-4.92408 -12.227693,-4.92408 -9.7445873,0 -17.6441357012216,7.89955 -17.6441357012216,17.64414 0,9.74458 7.8995484012216,17.64413 17.6441357012216,17.64413 9.744586,0 17.644135,-7.89955 17.644135,-17.64413 0,-0.88588 -0.718141,-1.60402 -1.604012,-1.60402 -0.885872,0 -1.604013,0.71814 -1.604013,1.60402 0,7.97284 -6.463267,14.43611 -14.43611,14.43611 z"
       inkscape:connector-curvature="0" />
    <path
       style="fill:#ececec;fill-rule:evenodd;stroke-width:0.80200613;fill-opacity:1"
       id="path14363"
       d="m 34.818467,272.42479 c -0.626406,-0.6264 -1.642011,-0.6264 -2.268417,0 l -4.399229,4.39923 c -0.626406,0.62641 -0.626406,1.64201 0,2.26842 0.626406,0.62641 1.642011,0.62641 2.268416,0 l 3.278628,-3.25142 3.251415,3.25142 c 0.626405,0.62641 1.64201,0.62641 2.268416,0 0.626405,-0.62641 0.626405,-1.64201 0,-2.26842 z"
       inkscape:connector-curvature="0" />
  </g>
</svg>
