<?xml version="1.0" encoding="UTF-8" standalone="no"?>
<!-- Created with Inkscape (http://www.inkscape.org/) -->

<svg
   xmlns:dc="http://purl.org/dc/elements/1.1/"
   xmlns:cc="http://creativecommons.org/ns#"
   xmlns:rdf="http://www.w3.org/1999/02/22-rdf-syntax-ns#"
   xmlns:svg="http://www.w3.org/2000/svg"
   xmlns="http://www.w3.org/2000/svg"
   xmlns:sodipodi="http://sodipodi.sourceforge.net/DTD/sodipodi-0.dtd"
   xmlns:inkscape="http://www.inkscape.org/namespaces/inkscape"
   width="39.6875mm"
   height="39.687504mm"
   viewBox="0 0 39.6875 39.687504"
   version="1.1"
   id="svg6393"
   inkscape:version="0.92.3 (2405546, 2018-03-11)"
   sodipodi:docname="icon_patientrecord_dark.svg"
   inkscape:export-filename="/media/cosmobird/Work/Organizing Matrix/5-Cooperative/3 - Repo/jipmer/uxui/assets/icon_patientrecord_dark.png"
   inkscape:export-xdpi="96"
   inkscape:export-ydpi="96">
  <defs
     id="defs6387">
    <filter
       inkscape:collect="always"
       style="color-interpolation-filters:sRGB"
       id="filter5031"
       x="-0.0060236361"
       width="1.0120473"
       y="-1.5290995"
       height="4.0581989">
      <feGaussianBlur
         inkscape:collect="always"
         stdDeviation="0.5973045"
         id="feGaussianBlur5033" />
    </filter>
  </defs>
  <sodipodi:namedview
     id="base"
     pagecolor="#ffffff"
     bordercolor="#666666"
     borderopacity="1.0"
     inkscape:pageopacity="0.0"
     inkscape:pageshadow="2"
     inkscape:zoom="1.2303658"
     inkscape:cx="-32.202964"
     inkscape:cy="33.603053"
     inkscape:document-units="mm"
     inkscape:current-layer="layer1"
     showgrid="false"
     inkscape:window-width="1366"
     inkscape:window-height="705"
     inkscape:window-x="0"
     inkscape:window-y="30"
     inkscape:window-maximized="1"
     fit-margin-top="0"
     fit-margin-left="0"
     fit-margin-right="0"
     fit-margin-bottom="0" />
  <metadata
     id="metadata6390">
    <rdf:RDF>
      <cc:Work
         rdf:about="">
        <dc:format>image/svg+xml</dc:format>
        <dc:type
           rdf:resource="http://purl.org/dc/dcmitype/StillImage" />
        <dc:title></dc:title>
      </cc:Work>
    </rdf:RDF>
  </metadata>
  <g
     inkscape:label="Layer 1"
     inkscape:groupmode="layer"
     id="layer1"
     transform="translate(71.011734,-122.81597)">
    <g
       id="g6421">
      <g
         transform="matrix(1.353782,0,0,1.4111111,-1557.3043,-825.39419)"
         id="g83514">
        <path
           inkscape:connector-curvature="0"
           style="fill:#e7eced;stroke-width:0.52083349"
           d="m 1125.8804,671.95996 h -26.6639 c -0.5729,0 -1.0417,0.46875 -1.0417,1.04167 v 26.04167 c 0,0.57291 0.4688,1.04166 1.0417,1.04166 h 26.6639 c 0.573,0 1.0417,-0.46875 1.0417,-1.04166 v -26.04167 c 0,-0.57292 -0.4687,-1.04167 -1.0417,-1.04167 z m -14.0597,4.6875 c -0.863,0 -1.5625,-0.69948 -1.5625,-1.5625 0,-0.86302 0.6995,-1.5625 1.5625,-1.5625 0.863,0 1.5625,0.69948 1.5625,1.5625 0,0.86302 -0.6995,1.5625 -1.5625,1.5625 z"
           id="path83506"
           sodipodi:nodetypes="ssssssssssssss" />
        <path
           inkscape:connector-curvature="0"
           style="fill:#666666;fill-opacity:1;stroke-width:0.52083349"
           d="m 1098.1748,690.70996 v 8.33334 c 0,0.57291 0.4688,1.04166 1.0417,1.04166 h 26.6731 c 0.573,0 1.0417,-0.46875 1.0417,-1.04166 v -8.33334 z"
           id="path83508"
           sodipodi:nodetypes="csssscc" />
        <path
           inkscape:connector-curvature="0"
           style="fill:#37c871;fill-opacity:1;stroke-width:0.52083349"
           d="m 1117.2346,690.70996 c -0.014,-0.63229 -0.3745,-1.20677 -0.9422,-1.49062 l -1.962,-1.00209 c -0.1338,-0.0682 -0.2182,-0.20624 -0.2182,-0.35677 v -0.60052 c 1.0067,-0.43386 1.5854,-1.27656 1.8672,-2.33073 0.4244,-0.13125 0.7369,-0.52396 0.7369,-0.99011 v -0.52083 c 0,-0.39895 -0.2296,-0.74323 -0.5614,-0.91822 -0.2297,-1.95886 -1.5245,-2.75157 -3.6052,-2.75157 -0.099,0 -0.1953,0.004 -0.2901,0.0115 -0.7073,0.0562 -1.4229,-0.0766 -2.0115,-0.47343 -0.2448,-0.16459 -0.4505,-0.34011 -0.5953,-0.52397 -0.066,-0.0838 -0.1979,-0.0302 -0.1859,0.0755 0.021,0.18228 0.052,0.39478 0.098,0.62708 0.1719,0.86458 0.069,0.73854 -0.2651,1.55417 -0.1849,0.45104 -0.3042,0.95156 -0.3594,1.48176 -0.3292,0.17657 -0.5573,0.5198 -0.5573,0.91719 v 0.52083 c 0,0.46615 0.3125,0.85886 0.737,0.99063 0.2818,1.05365 0.8599,1.89688 1.8672,2.33073 v 0.59636 c 0,0.1526 -0.086,0.29166 -0.2235,0.35937 l -2.0109,0.99011 c -0.549,0.29947 -0.8906,0.875 -0.8906,1.5 v 0.004 z"
           id="path83510" />
        <path
           inkscape:connector-curvature="0"
           id="path83512"
           d="m 1703.7305,1445.6167 v 0.9375 h 345.9635 v -0.9375 z"
           style="color:#000000;font-style:normal;font-variant:normal;font-weight:normal;font-stretch:normal;font-size:medium;line-height:normal;font-family:sans-serif;font-variant-ligatures:normal;font-variant-position:normal;font-variant-caps:normal;font-variant-numeric:normal;font-variant-alternates:normal;font-feature-settings:normal;text-indent:0;text-align:start;text-decoration:none;text-decoration-line:none;text-decoration-style:solid;text-decoration-color:#000000;letter-spacing:normal;word-spacing:normal;text-transform:none;writing-mode:lr-tb;direction:ltr;text-orientation:mixed;dominant-baseline:auto;baseline-shift:baseline;text-anchor:start;white-space:normal;shape-padding:0;clip-rule:nonzero;display:inline;overflow:visible;visibility:visible;opacity:1;isolation:auto;mix-blend-mode:normal;color-interpolation:sRGB;color-interpolation-filters:linearRGB;solid-color:#000000;solid-opacity:1;vector-effect:none;fill:#000000;fill-opacity:1;fill-rule:nonzero;stroke:none;stroke-width:0.9375px;stroke-linecap:butt;stroke-linejoin:miter;stroke-miterlimit:4;stroke-dasharray:none;stroke-dashoffset:0;stroke-opacity:1;filter:url(#filter5031);color-rendering:auto;image-rendering:auto;shape-rendering:auto;text-rendering:auto;enable-background:accumulate"
           transform="matrix(0.0830793,0,0,0.0830793,956.62386,570.53352)"
           sodipodi:nodetypes="ccccc" />
      </g>
      <rect
         y="122.81597"
         x="-71.011734"
         height="39.6875"
         width="39.6875"
         id="rect6413"
         style="opacity:1;fill:none;fill-opacity:1;stroke:none;stroke-width:1.43360579;stroke-linecap:round;stroke-linejoin:round;stroke-miterlimit:4;stroke-dasharray:none;stroke-opacity:1" />
    </g>
  </g>
</svg>
