<?xml version="1.0" encoding="UTF-8" standalone="no"?>
<!-- Created with Inkscape (http://www.inkscape.org/) -->

<svg
   xmlns:dc="http://purl.org/dc/elements/1.1/"
   xmlns:cc="http://creativecommons.org/ns#"
   xmlns:rdf="http://www.w3.org/1999/02/22-rdf-syntax-ns#"
   xmlns:svg="http://www.w3.org/2000/svg"
   xmlns="http://www.w3.org/2000/svg"
   xmlns:xlink="http://www.w3.org/1999/xlink"
   xmlns:sodipodi="http://sodipodi.sourceforge.net/DTD/sodipodi-0.dtd"
   xmlns:inkscape="http://www.inkscape.org/namespaces/inkscape"
   width="47.625mm"
   height="47.625mm"
   viewBox="0 0 47.625 47.625"
   version="1.1"
   id="svg217"
   inkscape:version="0.92.4 (unknown)"
   sodipodi:docname="logo-splash.svg">
  <defs
     id="defs211">
    <linearGradient
       inkscape:collect="always"
       xlink:href="#linearGradient6701"
       id="linearGradient7044"
       gradientUnits="userSpaceOnUse"
       x1="-247.04912"
       y1="441.9519"
       x2="-162.54912"
       y2="352.4519" />
    <linearGradient
       inkscape:collect="always"
       id="linearGradient6701">
      <stop
         style="stop-color:#ffcc00;stop-opacity:1"
         offset="0"
         id="stop6697" />
      <stop
         style="stop-color:#00ffcc;stop-opacity:1"
         offset="1"
         id="stop6699" />
    </linearGradient>
    <linearGradient
       inkscape:collect="always"
       xlink:href="#linearGradient6701"
       id="linearGradient333"
       gradientUnits="userSpaceOnUse"
       x1="-247.04912"
       y1="441.9519"
       x2="-162.54912"
       y2="352.4519" />
    <linearGradient
       inkscape:collect="always"
       xlink:href="#linearGradient6701"
       id="linearGradient335"
       gradientUnits="userSpaceOnUse"
       x1="-247.04912"
       y1="441.9519"
       x2="-162.54912"
       y2="352.4519" />
    <linearGradient
       inkscape:collect="always"
       xlink:href="#linearGradient6701"
       id="linearGradient337"
       gradientUnits="userSpaceOnUse"
       x1="-247.04912"
       y1="441.9519"
       x2="-162.54912"
       y2="352.4519" />
    <linearGradient
       inkscape:collect="always"
       xlink:href="#linearGradient6701"
       id="linearGradient339"
       gradientUnits="userSpaceOnUse"
       x1="-247.04912"
       y1="441.9519"
       x2="-162.54912"
       y2="352.4519" />
    <linearGradient
       inkscape:collect="always"
       xlink:href="#linearGradient6701"
       id="linearGradient341"
       gradientUnits="userSpaceOnUse"
       x1="-247.04912"
       y1="441.9519"
       x2="-162.54912"
       y2="352.4519" />
    <linearGradient
       inkscape:collect="always"
       xlink:href="#linearGradient6701"
       id="linearGradient343"
       gradientUnits="userSpaceOnUse"
       x1="-247.04912"
       y1="441.9519"
       x2="-162.54912"
       y2="352.4519" />
    <linearGradient
       inkscape:collect="always"
       xlink:href="#linearGradient6701"
       id="linearGradient345"
       gradientUnits="userSpaceOnUse"
       x1="-247.04912"
       y1="441.9519"
       x2="-162.54912"
       y2="352.4519" />
  </defs>
  <sodipodi:namedview
     id="base"
     pagecolor="#ffffff"
     bordercolor="#666666"
     borderopacity="1.0"
     inkscape:pageopacity="0.0"
     inkscape:pageshadow="2"
     inkscape:zoom="0.35"
     inkscape:cx="794.28571"
     inkscape:cy="-447.14286"
     inkscape:document-units="mm"
     inkscape:current-layer="layer1"
     showgrid="false"
     inkscape:window-width="1920"
     inkscape:window-height="1017"
     inkscape:window-x="0"
     inkscape:window-y="30"
     inkscape:window-maximized="1"
     fit-margin-top="0"
     fit-margin-left="0"
     fit-margin-right="0"
     fit-margin-bottom="0" />
  <metadata
     id="metadata214">
    <rdf:RDF>
      <cc:Work
         rdf:about="">
        <dc:format>image/svg+xml</dc:format>
        <dc:type
           rdf:resource="http://purl.org/dc/dcmitype/StillImage" />
        <dc:title></dc:title>
      </cc:Work>
    </rdf:RDF>
  </metadata>
  <g
     inkscape:label="Layer 1"
     inkscape:groupmode="layer"
     id="layer1"
     transform="translate(198.4375,17.098215)">
    <g
       transform="translate(-297.2987,-215.59867)"
       id="g111">
      <g
         inkscape:export-ydpi="600"
         inkscape:export-xdpi="600"
         inkscape:export-filename="/media/cosmobird/Work/Organizing Matrix/5-Cooperative/3 - Repo/jipmer/uxui/mock-png's/drawing-v-2.0/splash.png"
         style="fill:#f2f2f2"
         transform="matrix(0.26458333,0,0,0.26458333,178.18928,117.11674)"
         id="g21794-9">
        <g
           style="fill:#f2f2f2"
           id="g21768-1">
          <g
             style="fill:#f2f2f2"
             id="g21762-2" />
          <g
             style="fill:#f2f2f2"
             id="g21766-7" />
        </g>
        <g
           style="fill:#f2f2f2"
           id="g21772-0">
          <path
             style="fill:#f2f2f2"
             id="path21770-9"
             d="m -219.3,369.5 c -1,0 -1.9,-0.3 -2,-0.4 -0.3,-0.1 -0.4,-0.4 -0.3,-0.6 0.1,-0.3 0.4,-0.4 0.6,-0.3 0,0 1.7,0.6 2.7,0 0.5,-0.3 0.8,-0.7 0.9,-1.4 0.1,-0.3 0.3,-0.4 0.6,-0.4 0.3,0.1 0.4,0.3 0.4,0.6 -0.2,1 -0.7,1.7 -1.4,2.1 -0.4,0.3 -0.9,0.4 -1.5,0.4 z"
             inkscape:connector-curvature="0" />
        </g>
        <g
           style="fill:#f2f2f2"
           id="g21776-3">
          <path
             style="fill:#f2f2f2"
             id="path21774-6"
             d="m -187.7,392.4 c 0,0 -0.1,0 -0.1,0 -1,-0.3 -1.6,-0.8 -2,-1.5 -0.7,-1.5 0.1,-3.5 0.2,-3.6 0.1,-0.3 0.4,-0.4 0.7,-0.2 0.3,0.1 0.4,0.4 0.3,0.7 0,0 -0.7,1.6 -0.2,2.7 0.2,0.5 0.7,0.8 1.4,1 0.3,0.1 0.4,0.3 0.4,0.6 -0.3,0.1 -0.5,0.3 -0.7,0.3 z"
             inkscape:connector-curvature="0" />
        </g>
        <g
           style="fill:#f2f2f2"
           id="g21780-0">
          <path
             style="fill:#f2f2f2"
             id="path21778-6"
             d="m -229.7,375.7 c -1,0 -1.9,-0.3 -2,-0.4 -0.3,-0.1 -0.4,-0.4 -0.3,-0.6 0.1,-0.3 0.4,-0.4 0.6,-0.3 0,0 1.7,0.6 2.7,0 0.5,-0.3 0.8,-0.7 0.9,-1.4 0.1,-0.3 0.3,-0.4 0.6,-0.4 0.3,0.1 0.4,0.3 0.4,0.6 -0.2,1 -0.7,1.7 -1.4,2.1 -0.4,0.3 -0.9,0.4 -1.5,0.4 z"
             inkscape:connector-curvature="0" />
        </g>
        <g
           style="fill:#f2f2f2"
           id="g21784-2">
          <path
             style="fill:#f2f2f2"
             id="path21782-6"
             d="m -220.6,382.7 c -1.5,0 -2.7,-0.3 -2.8,-0.3 -0.3,-0.1 -0.4,-0.3 -0.4,-0.6 0.1,-0.3 0.3,-0.4 0.6,-0.4 0,0 3.8,1 6.2,-0.7 1.1,-0.7 1.7,-1.9 1.8,-3.6 0,-0.3 0.3,-0.5 0.5,-0.5 0.3,0 0.5,0.3 0.5,0.5 -0.2,1.9 -0.9,3.4 -2.2,4.3 -1.2,1 -2.8,1.3 -4.2,1.3 z"
             inkscape:connector-curvature="0" />
        </g>
        <g
           style="fill:#f2f2f2"
           id="g21788-1">
          <ellipse
             style="fill:#f2f2f2"
             id="ellipse21786-8"
             ry="1.6"
             rx="1.3"
             cy="383.89999"
             cx="-183.8" />
        </g>
        <g
           style="fill:#f2f2f2"
           id="g21792-7">
          <ellipse
             style="fill:#f2f2f2"
             id="ellipse21790-9"
             ry="1.6"
             rx="1.3"
             cy="391.29999"
             cx="-180.2" />
        </g>
      </g>
      <g
         transform="matrix(0.26458333,0,0,0.26458333,178.18928,117.11674)"
         id="g6639-2"
         style="fill:url(#linearGradient333);fill-opacity:1;stroke:none;stroke-width:1;stroke-miterlimit:4;stroke-dasharray:none;stroke-opacity:1">
        <path
           sodipodi:nodetypes="ccscccccccccccc"
           inkscape:connector-curvature="0"
           d="m -198.6,379.2 c -3.71341,-10.28552 -10.05335,-19.72326 -21.23919,-21.24098 -4.99384,-0.59421 -9.44933,1.03625 -12.70913,4.00703 -6.5196,5.94157 -8.25643,17.24446 0.0483,26.83395 4.9,5.6 10.9,10.3 16.3,15.5 11.19573,9.51382 10.74099,29.20277 4.40971,38.2 0.5,-1.9 0.7,-3.1 1.1,-4.3 3.2,-10.2 2.09029,-22.6 -6.00971,-29.4 -4.1,-3.4 -8.4,-6.5 -12.6,-9.9 -4.31004,-3.03286 -8.04837,-6.49671 -10.92529,-10.18247 -9.11587,-11.33422 -5.65106,-25.76376 4.88336,-32.9777 6.61864,-4.35549 15.18756,-5.4403 22.34193,-1.83983 7.2,3.9 10.6,10.6 12.9,18.1 0.6,2.1 0.9,4.2 1.5,7.2 z"
           id="path6636-3"
           style="fill:#00ffcc;fill-opacity:1;stroke:none;stroke-width:1;stroke-miterlimit:4;stroke-dasharray:none;stroke-opacity:1" />
      </g>
      <g
         transform="matrix(0.26458333,0,0,0.26458333,178.18928,117.11674)"
         id="g6643-7"
         style="fill:url(#linearGradient335);fill-opacity:1;stroke:none;stroke-width:1;stroke-miterlimit:4;stroke-dasharray:none;stroke-opacity:1">
        <path
           sodipodi:nodetypes="cccsssccccc"
           inkscape:connector-curvature="0"
           d="m -201.91682,427.9 c -2.9,-7.1 2.11682,-13.5 8.81682,-16.9 5.9,-3 12.2,-5.2 18.1,-8.2 4.3,-2.15 7.05,-5.475 8.1125,-9.3 1.0625,-3.825 0.51446,-9.00235 -2.0125,-12.3 -1.98819,-2.59456 -5.02598,-5.76438 -13.72225,-4.84183 -4.73694,0.50252 -9.36222,3.3778 -13.54025,5.85433 7.425,-7.85 20.9625,-12.7125 27.9625,-6.1125 9.8,9.3 6.2,24.9 -7.3,30.5 -3.4,1.4 -7,2.4 -10.5,3.6 -9.5,3.3 -15.41682,7.3 -15.91682,17.7 z"
           id="path6641-5"
           style="fill:#00ffcc;fill-opacity:1;stroke:none;stroke-width:1;stroke-miterlimit:4;stroke-dasharray:none;stroke-opacity:1" />
      </g>
      <g
         transform="matrix(0.26458333,0,0,0.26458333,178.18928,117.11674)"
         style="fill:url(#linearGradient337);fill-opacity:1;stroke:none;stroke-width:1;stroke-miterlimit:4;stroke-dasharray:none;stroke-opacity:1"
         id="g6649-9">
        <path
           style="fill:#00ffcc;fill-opacity:1;stroke:none;stroke-width:1;stroke-miterlimit:4;stroke-dasharray:none;stroke-opacity:1"
           id="path6647-2"
           d="m -219.3,369.5 c -1,0 -1.9,-0.3 -2,-0.4 -0.3,-0.1 -0.4,-0.4 -0.3,-0.6 0.1,-0.3 0.4,-0.4 0.6,-0.3 0,0 1.7,0.6 2.7,0 0.5,-0.3 0.8,-0.7 0.9,-1.4 0.1,-0.3 0.3,-0.4 0.6,-0.4 0.3,0.1 0.4,0.3 0.4,0.6 -0.2,1 -0.7,1.7 -1.4,2.1 -0.4,0.3 -0.9,0.4 -1.5,0.4 z"
           inkscape:connector-curvature="0" />
      </g>
      <g
         transform="matrix(0.26458333,0,0,0.26458333,178.18928,117.11674)"
         style="fill:url(#linearGradient339);fill-opacity:1;stroke:none;stroke-width:1;stroke-miterlimit:4;stroke-dasharray:none;stroke-opacity:1"
         id="g6653-2">
        <path
           style="fill:#00ffcc;fill-opacity:1;stroke:none;stroke-width:1;stroke-miterlimit:4;stroke-dasharray:none;stroke-opacity:1"
           id="path6651-8"
           d="m -187.7,392.4 c 0,0 -0.1,0 -0.1,0 -1,-0.3 -1.6,-0.8 -2,-1.5 -0.7,-1.5 0.1,-3.5 0.2,-3.6 0.1,-0.3 0.4,-0.4 0.7,-0.2 0.3,0.1 0.4,0.4 0.3,0.7 0,0 -0.7,1.6 -0.2,2.7 0.2,0.5 0.7,0.8 1.4,1 0.3,0.1 0.4,0.3 0.4,0.6 -0.3,0.1 -0.5,0.3 -0.7,0.3 z"
           inkscape:connector-curvature="0" />
      </g>
      <g
         transform="matrix(0.26458333,0,0,0.26458333,178.18928,117.11674)"
         style="fill:url(#linearGradient341);fill-opacity:1;stroke:none;stroke-width:1;stroke-miterlimit:4;stroke-dasharray:none;stroke-opacity:1"
         id="g6657-9">
        <path
           style="fill:#00ffcc;fill-opacity:1;stroke:none;stroke-width:1;stroke-miterlimit:4;stroke-dasharray:none;stroke-opacity:1"
           id="path6655-7"
           d="m -229.7,375.7 c -1,0 -1.9,-0.3 -2,-0.4 -0.3,-0.1 -0.4,-0.4 -0.3,-0.6 0.1,-0.3 0.4,-0.4 0.6,-0.3 0,0 1.7,0.6 2.7,0 0.5,-0.3 0.8,-0.7 0.9,-1.4 0.1,-0.3 0.3,-0.4 0.6,-0.4 0.3,0.1 0.4,0.3 0.4,0.6 -0.2,1 -0.7,1.7 -1.4,2.1 -0.4,0.3 -0.9,0.4 -1.5,0.4 z"
           inkscape:connector-curvature="0" />
      </g>
      <g
         transform="matrix(0.26458333,0,0,0.26458333,178.18928,117.11674)"
         style="fill:url(#linearGradient343);fill-opacity:1;stroke:none;stroke-width:1;stroke-miterlimit:4;stroke-dasharray:none;stroke-opacity:1"
         id="g6661-3">
        <path
           style="fill:#00ffcc;fill-opacity:1;stroke:none;stroke-width:1;stroke-miterlimit:4;stroke-dasharray:none;stroke-opacity:1"
           id="path6659-6"
           d="m -220.6,382.7 c -1.5,0 -2.7,-0.3 -2.8,-0.3 -0.3,-0.1 -0.4,-0.3 -0.4,-0.6 0.1,-0.3 0.3,-0.4 0.6,-0.4 0,0 3.8,1 6.2,-0.7 1.1,-0.7 1.7,-1.9 1.8,-3.6 0,-0.3 0.3,-0.5 0.5,-0.5 0.3,0 0.5,0.3 0.5,0.5 -0.2,1.9 -0.9,3.4 -2.2,4.3 -1.2,1 -2.8,1.3 -4.2,1.3 z"
           inkscape:connector-curvature="0" />
      </g>
      <g
         transform="matrix(0.26458333,0,0,0.26458333,178.18928,117.11674)"
         style="fill:url(#linearGradient345);fill-opacity:1;stroke:none;stroke-width:1;stroke-miterlimit:4;stroke-dasharray:none;stroke-opacity:1"
         id="g6665-1">
        <ellipse
           style="fill:#00ffcc;fill-opacity:1;stroke:none;stroke-width:1;stroke-miterlimit:4;stroke-dasharray:none;stroke-opacity:1"
           id="ellipse6663-2"
           ry="1.6"
           rx="1.3"
           cy="383.89999"
           cx="-183.8" />
      </g>
      <g
         transform="matrix(0.26458333,0,0,0.26458333,178.18928,117.11674)"
         style="fill:url(#linearGradient7044);fill-opacity:1;stroke:none;stroke-width:1;stroke-miterlimit:4;stroke-dasharray:none;stroke-opacity:1"
         id="g6669-9">
        <ellipse
           style="fill:#00ffcc;fill-opacity:1;stroke:none;stroke-width:1;stroke-miterlimit:4;stroke-dasharray:none;stroke-opacity:1"
           id="ellipse6667-3"
           ry="1.6"
           rx="1.3"
           cy="391.29999"
           cx="-180.2" />
      </g>
      <g
         transform="matrix(0.39546901,0,0,0.39546901,205.00773,65.15295)"
         style="fill:#00cca3;fill-opacity:0.68421056;stroke:none;stroke-width:1;stroke-miterlimit:4;stroke-dasharray:none;stroke-opacity:1"
         id="g6707-4">
        <path
           sodipodi:nodetypes="cccccccccccc"
           style="fill:#00cca3;fill-opacity:0.68421056;stroke:none;stroke-width:1;stroke-miterlimit:4;stroke-dasharray:none;stroke-opacity:1"
           id="path6705-7"
           d="M -199.01815,383.88326 C -202.3519,363.81677 -224.70499,351.65743 -236.1,364.1 c -7.8,9 -8.3,19.7 -0.4,28.7 4.9,5.6 10.9,10.3 16.3,15.5 2,1.9 4,3.7 5.8,5.8 8,9 8.2,18 0.4,28.4 0.5,-1.9 0.7,-3.1 1.1,-4.3 1.6,-5.1 1.675,-9.75 0.3375,-13.975 -3.8782,-10.09806 -13.22868,-15.27049 -20.7375,-21.325 -9,-7.2 -14.5,-16.1 -13.8,-28.1 0.5,-8.4 5.45,-15.525 12.0625,-19.6 20.0484,-10.73865 35.62325,10.52299 36.01935,28.68326 z"
           inkscape:connector-curvature="0" />
      </g>
      <g
         transform="matrix(0.39546901,0,0,0.39546901,205.00773,65.15295)"
         style="fill:#00cca3;fill-opacity:0.68421056;stroke:none;stroke-width:1;stroke-miterlimit:4;stroke-dasharray:none;stroke-opacity:1"
         id="g6711-8">
        <path
           sodipodi:nodetypes="cccccccccc"
           style="fill:#00cca3;fill-opacity:0.68421056;stroke:none;stroke-width:1;stroke-miterlimit:4;stroke-dasharray:none;stroke-opacity:1"
           id="path6709-4"
           d="m -199.50178,438.10281 c -1.26183,-7.29242 -1.98452,-9.30845 -1.31904,-14.60439 2.15291,-14.84327 14.10468,-14.86342 23.30173,-23.57589 9.04883,-8.69109 4.14616,-21.69712 -7.59697,-21.3313 -3.69653,0.18721 -6.41248,0.63678 -12.00527,5.15395 6.07861,-7.43492 16.04751,-11.08166 23.55012,-4.53035 2.80801,2.54707 4.31512,6.44641 4.3442,11.43324 -0.0228,3.38498 -1.14711,6.41312 -2.95323,9.06185 -6.95139,10.08314 -20.8885,10.06055 -24.78721,20.48348 -1.63936,4.5526 -2.17984,10.53604 -2.53433,17.90941 z"
           inkscape:connector-curvature="0" />
      </g>
    </g>
    <rect
       style="fill:none;fill-opacity:1;stroke:none;stroke-width:0.07000217;stroke-linecap:round;stroke-miterlimit:4;stroke-dasharray:none;stroke-opacity:1"
       id="rect347"
       width="47.625"
       height="47.625"
       x="-198.4375"
       y="-17.098215" />
  </g>
</svg>
