<?xml version="1.0" encoding="UTF-8" standalone="no"?>
<!-- Created with Inkscape (http://www.inkscape.org/) -->

<svg
   xmlns:dc="http://purl.org/dc/elements/1.1/"
   xmlns:cc="http://creativecommons.org/ns#"
   xmlns:rdf="http://www.w3.org/1999/02/22-rdf-syntax-ns#"
   xmlns:svg="http://www.w3.org/2000/svg"
   xmlns="http://www.w3.org/2000/svg"
   xmlns:sodipodi="http://sodipodi.sourceforge.net/DTD/sodipodi-0.dtd"
   xmlns:inkscape="http://www.inkscape.org/namespaces/inkscape"
   width="39.6875mm"
   height="39.6875mm"
   viewBox="0 0 39.6875 39.6875"
   version="1.1"
   id="svg15846"
   inkscape:version="0.92.3 (2405546, 2018-03-11)"
   sodipodi:docname="mascot.svg"
   inkscape:export-filename="/media/cosmobird/Work/Organizing Matrix/5-Cooperative/3 - Repo/jipmer/uxui/assets/mascot.png"
   inkscape:export-xdpi="96"
   inkscape:export-ydpi="96">
  <defs
     id="defs15840" />
  <sodipodi:namedview
     id="base"
     pagecolor="#ffffff"
     bordercolor="#666666"
     borderopacity="1.0"
     inkscape:pageopacity="0.0"
     inkscape:pageshadow="2"
     inkscape:zoom="1.3222025"
     inkscape:cx="253.99666"
     inkscape:cy="82.861682"
     inkscape:document-units="mm"
     inkscape:current-layer="layer1"
     showgrid="false"
     fit-margin-top="0"
     fit-margin-left="0"
     fit-margin-right="0"
     fit-margin-bottom="0"
     inkscape:window-width="1366"
     inkscape:window-height="705"
     inkscape:window-x="0"
     inkscape:window-y="30"
     inkscape:window-maximized="1" />
  <metadata
     id="metadata15843">
    <rdf:RDF>
      <cc:Work
         rdf:about="">
        <dc:format>image/svg+xml</dc:format>
        <dc:type
           rdf:resource="http://purl.org/dc/dcmitype/StillImage" />
        <dc:title></dc:title>
      </cc:Work>
    </rdf:RDF>
  </metadata>
  <g
     inkscape:label="Layer 1"
     inkscape:groupmode="layer"
     id="layer1"
     transform="translate(-145.45967,-9.1254654)">
    <g
       id="g15909">
      <rect
         y="9.1254654"
         x="145.45967"
         height="39.6875"
         width="39.6875"
         id="rect15888"
         style="opacity:1;fill:none;fill-opacity:1;stroke:none;stroke-width:0.35028452;stroke-linecap:butt;stroke-linejoin:round;stroke-miterlimit:4;stroke-dasharray:none;stroke-dashoffset:0;stroke-opacity:1" />
      <g
         inkscape:export-ydpi="600"
         inkscape:export-xdpi="600"
         inkscape:export-filename="/media/cosmobird/Work/Organizing Matrix/5-Cooperative/3 - Repo/jipmer/uxui/mock-png's/drawing-v-2.0/splash - login.png"
         style="fill:#333333;fill-opacity:1;stroke:none;stroke-width:1;stroke-miterlimit:4;stroke-dasharray:none;stroke-opacity:1"
         transform="matrix(0.32666632,0,0,0.32666632,231.96272,-100.75598)"
         id="g29373">
        <g
           style="fill:#333333;fill-opacity:1;stroke:none;stroke-width:1;stroke-miterlimit:4;stroke-dasharray:none;stroke-opacity:1"
           id="g29347">
          <g
             style="fill:#333333;fill-opacity:1;stroke:none;stroke-width:1;stroke-miterlimit:4;stroke-dasharray:none;stroke-opacity:1"
             id="g29341">
            <path
               style="fill:#333333;fill-opacity:1;stroke:none;stroke-width:1;stroke-miterlimit:4;stroke-dasharray:none;stroke-opacity:1"
               id="path29339"
               d="m -198.6,379.2 c -3.71341,-10.28552 -10.05335,-19.72326 -21.23919,-21.24098 -4.99384,-0.59421 -9.44933,1.03625 -12.70913,4.00703 -6.5196,5.94157 -8.25643,17.24446 0.0483,26.83395 4.9,5.6 10.9,10.3 16.3,15.5 11.19573,9.51382 10.74099,29.20277 4.40971,38.2 0.5,-1.9 0.7,-3.1 1.1,-4.3 3.2,-10.2 2.09029,-22.6 -6.00971,-29.4 -4.1,-3.4 -8.4,-6.5 -12.6,-9.9 -4.31004,-3.03286 -8.04837,-6.49671 -10.92529,-10.18247 -9.11587,-11.33422 -5.65106,-25.76376 4.88336,-32.9777 6.61864,-4.35549 15.18756,-5.4403 22.34193,-1.83983 7.2,3.9 10.6,10.6 12.9,18.1 0.6,2.1 0.9,4.2 1.5,7.2 z"
               inkscape:connector-curvature="0"
               sodipodi:nodetypes="ccscccccccccccc" />
          </g>
          <g
             style="fill:#333333;fill-opacity:1;stroke:none;stroke-width:1;stroke-miterlimit:4;stroke-dasharray:none;stroke-opacity:1"
             id="g29345">
            <path
               style="fill:#333333;fill-opacity:1;stroke:none;stroke-width:1;stroke-miterlimit:4;stroke-dasharray:none;stroke-opacity:1"
               id="path29343"
               d="m -201.91682,427.9 c -2.9,-7.1 2.11682,-13.5 8.81682,-16.9 5.9,-3 12.2,-5.2 18.1,-8.2 4.3,-2.15 7.05,-5.475 8.1125,-9.3 1.0625,-3.825 0.51446,-9.00235 -2.0125,-12.3 -1.98819,-2.59456 -5.02598,-5.76438 -13.72225,-4.84183 -4.73694,0.50252 -9.36222,3.3778 -13.54025,5.85433 7.425,-7.85 20.9625,-12.7125 27.9625,-6.1125 9.8,9.3 6.2,24.9 -7.3,30.5 -3.4,1.4 -7,2.4 -10.5,3.6 -9.5,3.3 -15.41682,7.3 -15.91682,17.7 z"
               inkscape:connector-curvature="0"
               sodipodi:nodetypes="cccsssccccc" />
          </g>
        </g>
        <g
           style="fill:#333333;fill-opacity:1;stroke:none;stroke-width:1;stroke-miterlimit:4;stroke-dasharray:none;stroke-opacity:1"
           id="g29351">
          <path
             style="fill:#333333;fill-opacity:1;stroke:none;stroke-width:1;stroke-miterlimit:4;stroke-dasharray:none;stroke-opacity:1"
             id="path29349"
             d="m -219.3,369.5 c -1,0 -1.9,-0.3 -2,-0.4 -0.3,-0.1 -0.4,-0.4 -0.3,-0.6 0.1,-0.3 0.4,-0.4 0.6,-0.3 0,0 1.7,0.6 2.7,0 0.5,-0.3 0.8,-0.7 0.9,-1.4 0.1,-0.3 0.3,-0.4 0.6,-0.4 0.3,0.1 0.4,0.3 0.4,0.6 -0.2,1 -0.7,1.7 -1.4,2.1 -0.4,0.3 -0.9,0.4 -1.5,0.4 z"
             inkscape:connector-curvature="0" />
        </g>
        <g
           style="fill:#333333;fill-opacity:1;stroke:none;stroke-width:1;stroke-miterlimit:4;stroke-dasharray:none;stroke-opacity:1"
           id="g29355">
          <path
             style="fill:#333333;fill-opacity:1;stroke:none;stroke-width:1;stroke-miterlimit:4;stroke-dasharray:none;stroke-opacity:1"
             id="path29353"
             d="m -187.7,392.4 c 0,0 -0.1,0 -0.1,0 -1,-0.3 -1.6,-0.8 -2,-1.5 -0.7,-1.5 0.1,-3.5 0.2,-3.6 0.1,-0.3 0.4,-0.4 0.7,-0.2 0.3,0.1 0.4,0.4 0.3,0.7 0,0 -0.7,1.6 -0.2,2.7 0.2,0.5 0.7,0.8 1.4,1 0.3,0.1 0.4,0.3 0.4,0.6 -0.3,0.1 -0.5,0.3 -0.7,0.3 z"
             inkscape:connector-curvature="0" />
        </g>
        <g
           style="fill:#333333;fill-opacity:1;stroke:none;stroke-width:1;stroke-miterlimit:4;stroke-dasharray:none;stroke-opacity:1"
           id="g29359">
          <path
             style="fill:#333333;fill-opacity:1;stroke:none;stroke-width:1;stroke-miterlimit:4;stroke-dasharray:none;stroke-opacity:1"
             id="path29357"
             d="m -229.7,375.7 c -1,0 -1.9,-0.3 -2,-0.4 -0.3,-0.1 -0.4,-0.4 -0.3,-0.6 0.1,-0.3 0.4,-0.4 0.6,-0.3 0,0 1.7,0.6 2.7,0 0.5,-0.3 0.8,-0.7 0.9,-1.4 0.1,-0.3 0.3,-0.4 0.6,-0.4 0.3,0.1 0.4,0.3 0.4,0.6 -0.2,1 -0.7,1.7 -1.4,2.1 -0.4,0.3 -0.9,0.4 -1.5,0.4 z"
             inkscape:connector-curvature="0" />
        </g>
        <g
           style="fill:#333333;fill-opacity:1;stroke:none;stroke-width:1;stroke-miterlimit:4;stroke-dasharray:none;stroke-opacity:1"
           id="g29363">
          <path
             style="fill:#333333;fill-opacity:1;stroke:none;stroke-width:1;stroke-miterlimit:4;stroke-dasharray:none;stroke-opacity:1"
             id="path29361"
             d="m -220.6,382.7 c -1.5,0 -2.7,-0.3 -2.8,-0.3 -0.3,-0.1 -0.4,-0.3 -0.4,-0.6 0.1,-0.3 0.3,-0.4 0.6,-0.4 0,0 3.8,1 6.2,-0.7 1.1,-0.7 1.7,-1.9 1.8,-3.6 0,-0.3 0.3,-0.5 0.5,-0.5 0.3,0 0.5,0.3 0.5,0.5 -0.2,1.9 -0.9,3.4 -2.2,4.3 -1.2,1 -2.8,1.3 -4.2,1.3 z"
             inkscape:connector-curvature="0" />
        </g>
        <g
           style="fill:#333333;fill-opacity:1;stroke:none;stroke-width:1;stroke-miterlimit:4;stroke-dasharray:none;stroke-opacity:1"
           id="g29367">
          <ellipse
             style="fill:#333333;fill-opacity:1;stroke:none;stroke-width:1;stroke-miterlimit:4;stroke-dasharray:none;stroke-opacity:1"
             id="ellipse29365"
             ry="1.6"
             rx="1.3"
             cy="383.89999"
             cx="-183.8" />
        </g>
        <g
           style="fill:#333333;fill-opacity:1;stroke:none;stroke-width:1;stroke-miterlimit:4;stroke-dasharray:none;stroke-opacity:1"
           id="g29371">
          <ellipse
             style="fill:#333333;fill-opacity:1;stroke:none;stroke-width:1;stroke-miterlimit:4;stroke-dasharray:none;stroke-opacity:1"
             id="ellipse29369"
             ry="1.6"
             rx="1.3"
             cy="391.29999"
             cx="-180.2" />
        </g>
      </g>
    </g>
  </g>
</svg>
