<?xml version="1.0" encoding="utf-8"?>
<!-- Generator: Adobe Illustrator 16.0.0, SVG Export Plug-In . SVG Version: 6.00 Build 0)  -->
<!DOCTYPE svg PUBLIC "-//W3C//DTD SVG 1.1//EN" "http://www.w3.org/Graphics/SVG/1.1/DTD/svg11.dtd">
<svg version="1.1" id="Layer_2" xmlns="http://www.w3.org/2000/svg" xmlns:xlink="http://www.w3.org/1999/xlink" x="0px" y="0px"
	 width="149.3px" height="149.3px" viewBox="0 0 149.3 149.3" style="enable-background:new 0 0 149.3 149.3;" xml:space="preserve"
	>
<font horiz-adv-x="1000">
<!-- Avenir is a trademark of Linotype GmbH registered in the U.S. Patent and Trademark Office and may be registered in certain other jurisdictions. -->
<!-- Copyright: Copyright 2016 Adobe System Incorporated. All rights reserved. -->
<font-face font-family="AvenirNext-Medium" units-per-em="1000" underline-position="-75" underline-thickness="50"/>
<missing-glyph horiz-adv-x="512" d="M222,117l0,67l56,0l0,-67M225,234l-2,17C223,288 227,315 236,332C241,341 247,350 254,360C261,369 271,380 282,391C293,401 301,410 308,418C315,425 320,432 323,439C326,445 329,451 330,457C331,462 332,468 332,474C332,498 325,518 310,535C295,551 277,559 256,559C235,559 218,552 203,537C188,522 178,498 174,464l-50,8C129,520 143,555 168,577C193,598 223,609 259,609C295,609 325,597 348,574C371,550 383,518 383,478C383,457 379,437 371,420C362,402 345,381 320,358C295,336 281,319 277,306C273,293 271,269 271,234M462,50l0,617l-412,0l0,-617M512,718l0,-718l-512,0l0,718z"/>
<glyph unicode=" " horiz-adv-x="250"/>
<glyph unicode="5" horiz-adv-x="595" d="M490,622l-292,0l-6,-186C205,441 220,444 237,446C253,448 268,449 283,449C317,449 349,444 378,434C407,423 432,408 453,389C474,370 490,346 502,319C514,291 520,260 520,226C520,189 514,155 501,125C488,95 471,70 449,49C427,28 401,11 371,0C341,-12 308,-18 273,-18C218,-18 171,-5 133,21C95,46 66,81 47,124l88,35C146,130 164,107 189,90C213,73 241,64 273,64C294,64 313,68 331,75C349,82 365,93 378,106C391,119 402,135 410,154C417,173 421,193 421,216C421,243 417,266 408,286C399,305 386,321 371,334C356,347 338,356 318,362C298,368 277,371 255,371C228,371 201,367 173,360C145,353 120,343 98,332l10,376l382,0z"/>
<glyph unicode="H" horiz-adv-x="729" d="M86,708l99,0l0,-296l358,0l0,296l100,0l0,-708l-100,0l0,324l-358,0l0,-324l-99,0z"/>
<glyph unicode="I" horiz-adv-x="271" d="M185,0l-99,0l0,708l99,0z"/>
<glyph unicode="M" horiz-adv-x="903" d="M452,164l2,0l209,544l154,0l0,-708l-99,0l0,592l-2,0l-235,-592l-63,0l-234,592l-2,0l0,-592l-96,0l0,708l154,0z"/>
<glyph unicode="a" horiz-adv-x="542" d="M376,307C376,342 365,369 344,386C323,403 294,411 259,411C232,411 207,406 184,396C160,385 140,372 124,356l-50,60C97,438 126,455 160,468C193,481 229,487 268,487C302,487 332,482 357,473C382,463 402,450 418,433C434,416 446,397 454,374C462,351 466,327 466,301l0,-207C466,78 467,61 468,44C469,26 470,11 473,0l-85,0C383,23 380,45 380,68l-3,0C360,43 338,23 312,9C285,-5 254,-12 218,-12C199,-12 180,-9 160,-4C139,1 121,9 104,20C87,31 74,46 63,65C52,84 46,107 46,134C46,170 56,199 75,220C94,241 120,257 151,268C182,279 218,286 257,289C296,292 336,294 376,294M353,226C330,226 306,225 281,223C256,221 233,217 213,211C192,205 175,196 162,184C149,172 142,156 142,136C142,122 145,110 151,101C156,92 164,84 173,78C182,72 193,68 204,66C215,63 227,62 239,62C283,62 317,75 341,102C364,128 376,161 376,201l0,25z"/>
<glyph unicode="e" horiz-adv-x="573" d="M428,279C427,298 424,315 419,332C413,348 405,362 394,374C383,386 369,396 353,403C336,410 317,413 295,413C275,413 256,410 239,403C221,396 206,386 193,374C180,362 169,348 161,332C152,315 147,298 146,279M523,241C523,236 523,230 523,225C523,220 523,214 522,209l-376,0C147,189 151,170 160,153C168,135 179,120 193,107C207,94 223,83 242,76C260,69 279,65 300,65C332,65 360,72 383,86C406,100 425,117 438,137l66,-53C479,51 449,26 415,11C380,-5 342,-13 300,-13C264,-13 231,-7 200,5C169,17 143,34 121,56C99,77 82,103 69,134C56,165 50,199 50,236C50,273 56,307 69,338C81,369 98,395 120,417C142,439 168,456 198,469C228,481 260,487 295,487C330,487 361,481 390,470C418,459 442,442 462,421C481,400 496,374 507,344C518,313 523,279 523,241z"/>
<glyph unicode="h" horiz-adv-x="584" d="M179,402C190,425 210,445 237,462C264,479 295,487 329,487C360,487 386,482 408,472C430,461 448,447 463,430C478,413 489,392 496,369C503,346 506,321 506,294l0,-294l-94,0l0,262C412,281 411,300 408,317C405,334 399,350 391,363C383,376 372,387 359,395C345,403 327,407 305,407C268,407 237,393 213,365C189,336 177,298 177,251l0,-251l-94,0l0,756l94,0l0,-354z"/>
<glyph unicode="l" horiz-adv-x="260" d="M177,0l-94,0l0,756l94,0z"/>
<glyph unicode="m" horiz-adv-x="887" d="M173,396C185,421 204,443 231,461C257,478 288,487 324,487C356,487 385,480 411,465C436,450 456,426 471,392C487,423 509,446 538,463C567,479 598,487 632,487C663,487 689,482 711,472C733,461 751,447 766,430C781,413 792,392 799,369C806,346 809,321 809,294l0,-294l-94,0l0,263C715,282 713,301 710,318C707,335 701,351 693,364C685,377 674,388 661,396C648,404 631,408 610,408C589,408 570,404 555,395C540,386 527,374 518,360C508,345 501,329 497,311C492,293 490,275 490,256l0,-256l-94,0l0,282C396,301 394,318 391,333C388,348 382,362 374,373C366,384 356,392 343,399C330,405 315,408 296,408C261,408 233,394 210,366C187,337 175,299 175,252l0,-252l-94,0l0,372C81,385 81,401 80,421C79,441 78,459 77,474l89,0C167,462 168,449 169,434C170,419 170,406 170,396l3,0z"/>
<glyph unicode="n" horiz-adv-x="582" d="M166,474C167,462 168,449 169,434C170,419 170,406 170,396l3,0C179,409 187,421 198,432C208,443 220,452 233,461C246,469 261,475 277,480C293,485 310,487 327,487C358,487 384,482 406,472C428,461 446,447 461,430C476,413 487,392 494,369C501,346 504,321 504,294l0,-294l-94,0l0,263C410,282 409,301 406,318C403,335 397,351 389,364C381,377 370,388 356,396C342,404 324,408 302,408C265,408 234,394 211,366C187,337 175,299 175,252l0,-252l-94,0l0,372C81,385 81,401 80,421C79,441 78,459 77,474z"/>
<glyph unicode="o" horiz-adv-x="610" d="M561,238C561,201 555,168 542,137C529,106 511,80 488,58C465,35 437,18 406,6C375,-7 341,-13 305,-13C269,-13 235,-7 204,6C173,18 146,35 123,58C100,80 83,106 70,137C57,168 50,201 50,238C50,275 57,308 70,339C83,369 100,395 123,417C146,439 173,456 204,469C235,481 269,487 305,487C341,487 375,481 406,469C437,456 465,439 488,417C511,395 529,369 542,339C555,308 561,275 561,238M463,238C463,261 460,282 453,303C446,324 435,342 422,358C409,373 392,386 373,395C353,404 330,409 305,409C280,409 257,404 238,395C218,386 201,373 188,358C175,342 165,324 158,303C151,282 147,261 147,238C147,215 151,194 158,173C165,152 175,134 188,118C201,102 218,89 238,80C257,71 280,66 305,66C330,66 353,71 373,80C392,89 409,102 422,118C435,134 446,152 453,173C460,194 463,215 463,238z"/>
<glyph unicode="p" horiz-adv-x="634" d="M175,-240l-94,0l0,714l92,0l0,-74l3,0C191,425 214,446 244,463C273,479 308,487 347,487C382,487 415,481 444,468C473,455 498,438 519,415C540,392 556,366 567,336C578,305 584,273 584,238C584,203 578,171 567,140C556,109 540,83 519,60C498,37 473,20 444,7C415,-6 382,-13 345,-13C311,-13 279,-6 249,9C219,24 195,44 178,71l-3,0M487,238C487,260 484,281 477,302C470,323 460,341 447,357C434,373 417,386 398,395C378,404 355,409 329,409C305,409 283,404 264,395C244,386 227,373 213,357C199,341 188,323 181,302C173,281 169,260 169,237C169,214 173,193 181,172C188,151 199,133 213,118C227,102 244,89 264,80C283,71 305,66 329,66C355,66 378,71 398,81C417,90 434,103 447,119C460,135 470,153 477,174C484,195 487,216 487,238z"/>
<glyph unicode="r" horiz-adv-x="362" d="M81,372C81,385 81,401 80,421C79,441 78,459 77,474l89,0C167,462 168,448 169,433C170,417 170,404 170,394l3,0C186,422 206,445 232,462C257,479 286,487 318,487C333,487 345,486 355,483l-4,-87C338,399 323,401 308,401C285,401 266,397 249,389C232,380 219,369 208,355C197,341 188,325 183,307C178,288 175,269 175,249l0,-249l-94,0l0,372z"/>
<glyph unicode="t" horiz-adv-x="329" d="M313,397l-126,0l0,-247C187,121 192,101 203,89C214,76 231,70 254,70C263,70 272,71 282,73C292,75 301,78 309,82l3,-77C301,1 288,-2 275,-4C261,-7 247,-8 232,-8C187,-8 153,4 130,29C106,54 94,91 94,140l0,257l-91,0l0,77l91,0l0,136l93,0l0,-136l126,0z"/>
<glyph unicode="v" horiz-adv-x="504" d="M304,0l-102,0l-193,474l104,0l139,-373l2,0l140,373l100,0z"/>
</font>

	<path style="fill:#FFAAD4;" d="M149.3,142.7c0,3.7-3,6.7-6.7,6.7H6.7c-3.7,0-6.7-3-6.7-6.7V6.7C0,3,3,0,6.7,0h136
	c3.7,0,6.7,3,6.7,6.7V142.7z"/>
<rect x="118.9" y="5.3" style="fill:none;" width="26.2" height="38.9"/>
<text transform="matrix(1 0 0 1 119.3081 37.5879)" style="font-family:'AvenirNext-Medium'; font-size:42.6667;">5</text>
<rect x="7" y="112.6" style="fill:none;" width="140" height="32"/>
<text transform="matrix(1 0 0 1 7 121.373)"><tspan x="0" y="0" style="font-family:'AvenirNext-Medium'; font-size:11.6667;">Improve Maternal </tspan><tspan x="0" y="14" style="font-family:'AvenirNext-Medium'; font-size:11.6667;">Health</tspan></text>
<path style="fill:#FFFFFF;stroke:#000000;stroke-width:4;stroke-miterlimit:10;" d="M52.9,80h12.2l2.4,22h8.7l2.2-22
	c0,0,20.7,0.4,20.7-15.3c0-15.8-17.3-17.3-17.3-17.3s-0.7-11.1-11.3-11.1c-10.7,0-11.6,9.6-11.6,9.6S59.6,71.1,52.9,80z"/>
<path style="fill:#FFFFFF;stroke:#000000;stroke-width:4;stroke-miterlimit:10;" d="M57.9,31.8c-1.2,0,15-0.5,15-0.5
	s6.7-2.7,6.7-9.6s-7.4-9.7-9.4-9.7c-1.9,0-10.1,0-10.1,9.6C60.1,31.3,59,31.8,57.9,31.8z"/>
<path d="M85.5,59.1c0,0,1.9-1.7,3.8-1.7c1.9,0,4.9,2.2,4.9,6.3c0,4.1-7.1,8.8-8.8,8.8s-8.4-6.8-8.4-10.6s2.3-5.5,4.1-5.5
	S85.5,59.1,85.5,59.1z"/>
</svg>
